<?xml version="1.0" encoding="UTF-8"?>
<session version="1.0">
<refactoring comment="Rename type &apos;AbC&apos; to &apos;AbCl&apos;&#x0A;- Original project: &apos;huffmantest&apos;&#x0A;- Original element: &apos;AbC&apos;&#x0A;- Renamed element: &apos;AbCl&apos;&#x0A;- Update references to refactored element&#x0A;- Update textual occurrences in comments and strings" description="Rename type &apos;AbC&apos;" flags="589830" id="org.eclipse.jdt.ui.rename.type" input="/src&lt;{AbC.java[AbC" matchStrategy="1" name="AbCl" qualified="false" references="true" similarDeclarations="false" stamp="1355082302720" textual="false" version="1.0"/>
</session>